Read and Write Shapefiles
…
Answer Key

Practice Q1

Code

q1 <- sf::read_sf(here("data/healthsites/sle_hf.shp"))
q1

Simple feature collection with 44 features and 11 fields
Geometry type: POINT
Dimension:     XY
Bounding box:  xmin: -13.26473 ymin: 8.358015 xmax: -13.0821 ymax: 8.490478
Geodetic CRS:  WGS 84
# A tibble: 44 × 12
    osm_id source addrfull building healthcare operatorty addrcity name  amenity
     <dbl> <chr>  <chr>    <chr>    <chr>      <chr>      <chr>    <chr> <chr>  
 1  3.20e9 UNMEE… <NA>     <NA>     <NA>       <NA>       <NA>     Chin… hospit…
 2  3.20e9 UNMEE… <NA>     <NA>     <NA>       <NA>       <NA>     Lakk… hospit…
 3  3.21e9 https… <NA>     <NA>     <NA>       <NA>       <NA>     Prin… hospit…
 4  3.34e9 MSF-CH <NA>     <NA>     <NA>       <NA>       <NA>     COMM… clinic 
 5  3.34e9 MSF-CH <NA>     <NA>     <NA>       <NA>       <NA>     Den … clinic 
 6  3.34e9 <NA>   <NA>     <NA>     <NA>       <NA>       <NA>     MABE… clinic 
 7  3.34e9 MSF-CH <NA>     <NA>     <NA>       <NA>       <NA>     MAYE… clinic 
 8  3.34e9 MSF-CH <NA>     <NA>     <NA>       <NA>       <NA>     HEAL… clinic 
 9  3.34e9 <NA>   <NA>     <NA>     <NA>       <NA>       <NA>     Dent… dentist
10  3.34e9 MSF-CH <NA>     <NA>     <NA>       <NA>       <NA>     GINE… clinic 
# ℹ 34 more rows
# ℹ 3 more variables: healthca_1 <chr>, capacitype <chr>, geometry <POINT [°]>
…
